https://www.hepsiburada.com/ara?q=notebook
https://www.hepsiburada.com/ara?q=android+telefon
https://www.hepsiburada.com/ara?q=ios+telefon
https://www.hepsiburada.com/ara?q=macbook
https://www.hepsiburada.com/ara?q=hdd
https://www.hepsiburada.com/ara?q=cpu
